-Infinity,8.315321775377567
0.0,9.403766708502243
6.933423025730715,0.0
0.6931471805599453,7.846980982138788
1.0986122886681098,7.133295954896068
1.3862943611198906,6.677083461247136
6.9363427358340495,0.0
1.6094379124341003,6.2878585601617845
1.791759469228055,6.021023349349527
1.9459101490553132,5.75890177387728
2.0794415416798357,5.58724865840025
7.6290038896529575,0.0
2.1972245773362196,5.420534999272286
2.302585092994046,5.159055299214529
6.942156705699469,0.0
2.3978952727983707,5.087596335232384
2.4849066497880004,4.941642422609304
2.5649493574615367,4.948759890378168
2.6390573296152584,4.882801922586371
2.70805020110221,4.584967478670572
6.946975992135418,0.0
2.772588722239781,4.6913478822291435
2.833213344056216,4.248495242049359
2.8903717578961645,4.2626798770413155
2.9444389791664403,4.31748811353631
2.995732273553991,4.143134726391533
3.044522437723423,4.1588830833596715
3.091042453358316,4.060443010546419
7.635786861395585,0.0
3.1354942159291497,4.204692619390966
3.1780538303479458,4.060443010546419
3.2188758248682006,4.110873864173311
3.258096538021482,3.6375861597263857
6.957497370876951,0.0
3.295836866004329,3.4965075614664802
3.332204510175204,3.6109179126442243
3.367295829986474,3.5263605246161616
3.4011973816621555,3.6375861597263857
3.4339872044851463,3.4339872044851463
3.4657359027997265,3.2188758248682006
3.4965075614664802,3.332204510175204
3.5263605246161616,3.4657359027997265
3.5553480614894135,3.044522437723423
3.58351893845611,3.332204510175204
3.6109179126442243,3.367295829986474
9.823903073193286,0.0
3.6375861597263857,2.5649493574615367
3.6635616461296463,2.833213344056216
3.6888794541139363,3.4965075614664802
3.713572066704308,3.091042453358316
3.7376696182833684,3.367295829986474
3.7612001156935624,2.995732273553991
3.784189633918261,2.1972245773362196
7.646353722445999,0.0
3.8066624897703196,3.091042453358316
3.828641396489095,2.772588722239781
3.8501476017100584,2.772588722239781
3.871201010907891,2.833213344056216
3.8918202981106265,2.995732273553991
3.912023005428146,2.4849066497880004
3.9318256327243257,2.995732273553991
3.9512437185814275,3.1780538303479458
3.970291913552122,2.5649493574615367
3.9889840465642745,1.791759469228055
4.007333185232471,2.70805020110221
4.02535169073515,2.6390573296152584
4.04305126783455,2.4849066497880004
4.060443010546419,2.995732273553991
4.07753744390572,2.9444389791664403
4.0943445622221,2.6390573296152584
4.110873864173311,2.1972245773362196
4.127134385045092,2.3978952727983707
4.143134726391533,2.772588722239781
4.1588830833596715,2.302585092994046
4.174387269895637,2.1972245773362196
4.189654742026425,2.0794415416798357
4.204692619390966,2.302585092994046
4.219507705176107,1.791759469228055
4.23410650459726,1.9459101490553132
4.248495242049359,2.302585092994046
4.2626798770413155,2.3978952727983707
4.276666119016055,2.4849066497880004
4.290459441148391,1.9459101490553132
4.30406509320417,1.791759469228055
4.31748811353631,2.1972245773362196
7.003065458786462,0.0
4.330733340286331,2.0794415416798357
4.343805421853684,1.791759469228055
4.356708826689592,1.6094379124341003
4.3694478524670215,1.3862943611198906
4.382026634673881,1.9459101490553132
4.394449154672439,2.1972245773362196
4.406719247264253,1.791759469228055
4.418840607796598,1.6094379124341003
4.430816798843313,1.9459101490553132
4.442651256490317,1.0986122886681098
4.454347296253507,2.4849066497880004
4.465908118654584,1.791759469228055
4.477336814478207,1.791759469228055
4.48863636973214,1.791759469228055
4.499809670330265,2.4849066497880004
4.51085950651685,1.9459101490553132
4.5217885770490405,1.3862943611198906
4.543294782270004,2.1972245773362196
4.553876891600541,2.1972245773362196
4.564348191467836,1.0986122886681098
4.574710978503383,2.3978952727983707
4.584967478670572,1.0986122886681098
4.59511985013459,0.6931471805599453
4.605170185988092,1.9459101490553132
4.61512051684126,1.9459101490553132
9.710206155505832,0.0
4.624972813284271,1.6094379124341003
4.634728988229636,1.0986122886681098
4.6443908991413725,2.1972245773362196
4.653960350157523,1.0986122886681098
7.029972911706386,0.0
4.663439094112067,1.6094379124341003
4.672828834461906,1.0986122886681098
4.68213122712422,0.0
4.6913478822291435,2.0794415416798357
4.700480365792417,1.791759469228055
4.709530201312334,0.6931471805599453
4.718498871295094,1.791759469228055
7.035268599281097,0.0
4.727387818712341,0.6931471805599453
4.736198448394496,2.0794415416798357
4.74493212836325,1.791759469228055
4.7535901911063645,1.791759469228055
4.762173934797756,1.0986122886681098
4.770684624465665,1.3862943611198906
4.77912349311153,1.9459101490553132
4.787491742782046,1.0986122886681098
4.795790545596741,1.0986122886681098
4.804021044733257,0.0
4.812184355372417,1.0986122886681098
4.820281565605037,1.0986122886681098
4.8283137373023015,1.3862943611198906
4.836281906951478,1.3862943611198906
4.852030263919617,1.3862943611198906
4.859812404361672,1.6094379124341003
4.867534450455582,1.0986122886681098
4.875197323201151,1.6094379124341003
4.882801922586371,1.0986122886681098
4.890349128221754,1.0986122886681098
4.897839799950911,1.791759469228055
4.90527477843843,0.6931471805599453
4.912654885736052,1.791759469228055
4.919980925828125,0.6931471805599453
4.927253685157205,1.9459101490553132
4.9344739331306915,1.3862943611198906
4.941642422609304,1.3862943611198906
4.948759890378168,1.0986122886681098
4.955827057601261,1.0986122886681098
4.962844630259907,1.0986122886681098
4.969813299576001,1.791759469228055
4.983606621708336,1.6094379124341003
4.990432586778736,0.0
4.997212273764115,0.0
5.003946305945459,1.3862943611198906
5.0106352940962555,1.0986122886681098
5.017279836814924,0.6931471805599453
5.0238805208462765,1.0986122886681098
7.0707241072602764,0.0
5.030437921392435,1.3862943611198906
5.0369526024136295,0.6931471805599453
5.043425116919247,0.6931471805599453
5.049856007249537,1.3862943611198906
5.056245805348308,1.0986122886681098
8.080546965824498,0.0
5.0689042022202315,1.6094379124341003
5.075173815233827,1.0986122886681098
5.081404364984463,1.0986122886681098
5.087596335232384,0.6931471805599453
5.093750200806762,0.0
5.099866427824199,1.0986122886681098
5.10594547390058,1.6094379124341003
5.111987788356544,0.0
8.572817095164234,0.0
5.117993812416755,1.6094379124341003
5.123963979403259,1.3862943611198906
7.084226422097916,0.0
5.1298987149230735,0.0
5.135798437050262,1.0986122886681098
5.14166355650266,1.3862943611198906
5.147494476813453,1.0986122886681098
5.153291594497779,1.3862943611198906
5.170483995038151,0.0
5.176149732573829,0.0
5.181783550292085,0.6931471805599453
5.187385805840755,0.6931471805599453
5.19295685089021,1.0986122886681098
5.198497031265826,0.0
5.204006687076795,1.3862943611198906
5.209486152841421,0.6931471805599453
5.214935757608986,1.3862943611198906
5.220355825078324,0.6931471805599453
5.225746673713202,0.6931471805599453
5.231108616854587,0.0
5.236441962829949,0.0
5.241747015059643,0.0
5.247024072160486,1.3862943611198906
5.25227342804663,0.6931471805599453
5.262690188904886,0.0
5.278114659230517,0.6931471805599453
7.716460800176355,0.0
5.2832037287379885,0.6931471805599453
5.288267030694535,0.0
5.293304824724492,0.0
5.308267697401205,0.0
5.313205979041787,0.0
5.318119993844216,0.0
5.3230099791384085,0.6931471805599453
5.327876168789581,1.0986122886681098
5.332718793265369,0.6931471805599453
7.721791776817535,0.0
5.342334251964811,1.3862943611198906
5.3471075307174685,0.0
7.1180162044653335,0.0
5.351858133476067,0.0
7.118826249062078,0.6931471805599453
5.356586274672012,0.0
5.365976015021851,0.0
8.097426298597213,0.0
7.724888439323074,0.0
5.375278407684165,1.0986122886681098
5.37989735354046,0.0
5.384495062789089,1.3862943611198906
7.126087273299125,0.0
5.3981627015177525,0.0
5.402677381872279,0.6931471805599453
5.407171771460119,0.6931471805599453
5.420534999272286,0.0
5.424950017481403,0.6931471805599453
7.132497551660044,0.0
5.429345628954441,0.0
5.43372200355424,1.0986122886681098
5.442417710521793,0.6931471805599453
5.44673737166631,0.0
5.4510384535657,0.0
5.455321115357702,0.0
5.459585514144159,0.0
5.4680601411351315,0.0
5.472270673671475,0.0
5.476463551931511,0.6931471805599453
7.142036574706803,0.0
5.484796933490655,0.0
7.143617602704121,0.0
5.497168225293202,0.0
5.501258210544727,0.6931471805599453
5.517452896464707,0.0
5.521460917862246,0.0
5.5254529391317835,0.0
5.529429087511423,0.0
7.151485463904735,0.0
5.53338948872752,0.0
5.537334267018537,0.0
5.541263545158426,0.6931471805599453
5.54907608489522,0.0
5.556828061699537,0.0
5.560681631015528,0.0
5.564520407322694,0.0
5.568344503761097,0.0
5.572154032177765,0.0
7.745435610274381,0.0
5.579729825986222,0.0
5.583496308781699,0.6931471805599453
5.58724865840025,0.0
5.594711379601839,0.0
7.748028524432376,0.0
5.602118820879701,0.0
5.60947179518496,0.0
5.6131281063880705,0.0
8.593227877692234,0.0
5.62040086571715,0.6931471805599453
5.627621113690637,0.6931471805599453
5.634789603169249,0.6931471805599453
7.752764808851328,0.0
5.645446897643238,0.0
5.648974238161206,1.0986122886681098
5.655991810819852,0.0
5.662960480135946,0.0
5.673323267171493,0.0
5.676753802268282,0.0
5.683579767338681,0.0
5.6937321388027,0.0
7.186901020411631,0.0
7.76046702921342,0.0
7.761319180947987,0.0
5.707110264748875,0.0
5.71042701737487,0.0
5.713732805509369,0.6931471805599453
5.733341276897746,0.0
5.7430031878094825,0.6931471805599453
5.749392985908253,0.0
5.755742213586912,0.0
5.75890177387728,0.0
5.768320995793772,0.6931471805599453
5.780743515792329,0.0
5.783825182329737,0.0
5.786897381366708,0.6931471805599453
5.7899601708972535,0.6931471805599453
7.208600337960199,0.0
7.773173680482536,0.0
8.39479954320217,0.0
5.793013608384144,0.6931471805599453
7.21081845347222,0.0
5.799092654460526,0.0
7.774435510302958,0.0
5.805134968916488,0.6931471805599453
5.808142489980444,0.0
5.811140992976701,0.0
5.814130531825066,0.6931471805599453
5.817111159963204,0.0
5.820082930352362,0.0
8.605020901781758,0.0
5.82600010738045,0.0
5.831882477283517,0.0
5.840641657373398,0.0
5.846438775057725,0.0
5.857933154483459,0.0
5.863631175598097,0.0
5.87493073085203,1.0986122886681098
5.883322388488279,0.0
5.886104031450156,0.0
7.786967002614872,0.0
5.8916442118257715,0.6931471805599453
5.8944028342648505,1.0986122886681098
5.902633333401366,0.0
5.91350300563827,0.6931471805599453
5.918893854273146,0.6931471805599453
5.924255797414532,0.0
5.934894195619588,0.6931471805599453
5.937536205082426,0.0
5.940171252720432,0.6931471805599453
5.948034989180646,0.0
5.950642552587727,0.0
7.251344983372214,0.0
5.961005339623274,0.0
5.963579343618446,0.0
5.968707559985366,0.0
5.976350909297934,0.0
5.978885764901122,0.0
6.0014148779611505,0.0
7.8050670442584895,0.0
7.266128779556451,0.0
6.0112671744041615,0.0
6.016157159698354,0.0
7.269616749608169,0.0
6.025865973825314,0.0
6.035481432524756,0.0
6.037870919922137,0.0
6.040254711277414,0.0
6.042632833682381,0.0
6.054439346269371,0.0
6.056784013228625,0.6931471805599453
6.063785208687608,0.0
6.073044534100405,0.0
6.075346031088684,0.0
6.082218910376446,0.0
6.089044875446846,0.0
8.165079258805068,0.0
6.095824562432225,0.0
6.100318952020064,0.6931471805599453
9.529448434427817,0.0
6.1092475827643655,0.0
6.118097198041348,0.0
8.939318740417509,0.0
6.139884552226255,0.0
7.305860032684009,0.0
6.144185634125646,0.0
7.831617276352611,0.0
10.347948989650975,0.6931471805599453
6.16541785423142,0.0
6.169610732491456,0.0
6.175867270105761,0.6931471805599453
6.180016653652572,0.0
7.321188556739478,0.0
6.19644412779452,0.0
6.198478716492308,0.0
7.328437352895162,0.0
8.634442751466477,0.0
6.222576268071369,0.0
8.182559264068665,0.0
6.2285110035911835,0.0
6.240275845170769,0.0
6.255750041753367,0.0
8.187299270155147,0.0
6.259581464064923,0.0
6.261491684321042,0.0
7.3453648404168685,0.0
6.263398262591624,0.0
6.26530121273771,0.0
6.267200548541362,0.0
6.270988431858299,0.0
6.274762021241939,0.0
8.192016914536875,0.0
6.293419278846481,0.0
6.304448802421981,0.0
6.3080984415095305,0.0
6.313548046277095,0.0
6.317164686747284,0.0
8.445052513638554,0.0
6.320768294250582,0.0
6.322565239927284,0.0
6.326149473155099,0.0
7.368339686311381,0.0
6.331501849893691,0.0
7.370230641807081,0.0
6.343880434126331,0.0
6.3473892096560105,0.0
6.3578422665081,0.6931471805599453
7.38025578842646,0.0
6.366470447731438,0.0
6.373319789577012,0.0
7.3864708488298945,0.0
6.385194398997726,0.0
7.879291485082271,0.0
6.38856140554563,0.0
6.391917113392602,0.0
6.393590753950631,0.0
6.403574197934815,0.0
6.405228458030842,0.0
7.8838232148921525,0.0
6.408528791059498,0.0
10.284864865115203,0.0
6.424869023905388,0.6931471805599453
7.403670290012373,0.0
6.429719478039138,0.0
6.432940092739179,0.0
6.4457198193855785,0.6931471805599453
6.452048954437226,0.0
7.415175109613295,0.0
7.89655270164304,0.0
6.467698726104354,0.6931471805599453
6.4692503167957724,0.0
6.47543271670409,0.0
6.481577129276431,0.0
6.486160788944089,0.0
7.427738840532894,0.0
6.495265555937008,0.0
7.430707082545968,0.0
6.4967749901858625,0.0
6.498282149476434,0.0
6.502790045915623,0.0
6.505784060128229,0.0
6.508769136971682,0.0
8.66406026722579,0.0
6.522092798170152,0.0
9.090655529030203,0.0
6.532334292222349,0.0
6.558197802812269,0.0
6.559615237493242,0.0
6.576469569048224,0.0
7.465082736399547,0.0
6.584791392385716,0.0
6.591673732008658,0.0
9.962228047558728,0.0
6.594413459749778,0.0
6.601230118728877,0.0
6.602587892189336,0.0
8.975756630519417,0.0
6.621405651764134,0.0
6.625392368007956,0.0
6.628041376179533,0.0
6.630683385642372,0.0
6.633318433280377,0.0
8.67965211911394,0.0
6.650279048587422,0.0
10.180133955367644,0.0
6.666956792429207,0.0
6.677083461247136,0.0
9.690851107739814,0.0
6.697034247666484,0.0
6.71174039505618,0.0
7.520776415062797,0.0
6.714170529909472,0.0
7.521859252201629,0.0
6.731018100482083,0.0
6.732210706467206,0.0
6.74993119378857,0.0
6.752270376141742,0.6931471805599453
6.763884908562435,0.0
6.778784897685177,0.0
9.561630845638076,0.0
7.5745584842024805,0.0
6.8308742346461795,0.0
8.999866223762636,0.0
7.589335823170617,0.0
6.882437470997847,0.0
6.8885724595653635,0.0
6.897704943128636,0.0
8.026496938945412,0.0
6.930494765951626,0.0
